{
  "streams": [
    {
      "stream_name":  "animals",
      "input_filename": "demo-data/animals-data.jsonl"
    },
    {
      "stream_name":  "pageviews",
      "input_filename": "demo-data/pageviews-data.jsonl"
    }
  ]
}